@笑傲江湖
S200,
3-, 6., 3/, 5, 5-,
3, 2, 3, 5, 6, 3---,
3-, 6., 3/, 5, 5-,
3, 2, 3, 5, 6/, 5/, 3--, 
3/, 2/, 1., 1/, 2, 3, 2, 2-, 
1, -6, 1, 2, 3, 5., 6/, 5,
3/, 2/, 1., 1/, 2, 3, 2, 2-, 
1, -6, -6/, 1/, 2/, 3, 5/, 6--$